<?xml version="1.0" encoding="UTF-8" standalone="no"?>
<!-- Created with Inkscape (http://www.inkscape.org/) -->

<svg
   xmlns:dc="http://purl.org/dc/elements/1.1/"
   xmlns:cc="http://creativecommons.org/ns#"
   xmlns:rdf="http://www.w3.org/1999/02/22-rdf-syntax-ns#"
   xmlns:svg="http://www.w3.org/2000/svg"
   xmlns="http://www.w3.org/2000/svg"
   xmlns:sodipodi="http://sodipodi.sourceforge.net/DTD/sodipodi-0.dtd"
   xmlns:inkscape="http://www.inkscape.org/namespaces/inkscape"
   width="290.65106mm"
   height="290.65109mm"
   viewBox="0 0 290.65106 290.65109"
   version="1.1"
   id="svg7334"
   inkscape:version="0.92.2 5c3e80d, 2017-08-06"
   sodipodi:docname="embed_2.svg">
  <defs
     id="defs7328">
    <marker
       inkscape:stockid="DotL"
       orient="auto"
       refY="0.0"
       refX="0.0"
       id="DotL"
       style="overflow:visible"
       inkscape:isstock="true">
      <path
         id="path4873"
         d="M -2.5,-1.0 C -2.5,1.7600000 -4.7400000,4.0 -7.5,4.0 C -10.260000,4.0 -12.5,1.7600000 -12.5,-1.0 C -12.5,-3.7600000 -10.260000,-6.0 -7.5,-6.0 C -4.7400000,-6.0 -2.5,-3.7600000 -2.5,-1.0 z "
         style="fill-rule:evenodd;stroke:#000000;stroke-width:1pt;stroke-opacity:1;fill:#000000;fill-opacity:1"
         transform="scale(0.8) translate(7.4, 1)" />
    </marker>
  </defs>
  <sodipodi:namedview
     id="base"
     pagecolor="#ffffff"
     bordercolor="#666666"
     borderopacity="1.0"
     inkscape:pageopacity="0.0"
     inkscape:pageshadow="2"
     inkscape:zoom="0.58262583"
     inkscape:cx="250.32916"
     inkscape:cy="433.13309"
     inkscape:document-units="mm"
     inkscape:current-layer="layer7"
     showgrid="false"
     fit-margin-top="0"
     fit-margin-left="0"
     fit-margin-right="0"
     fit-margin-bottom="0"
     inkscape:window-width="1920"
     inkscape:window-height="1016"
     inkscape:window-x="0"
     inkscape:window-y="27"
     inkscape:window-maximized="1" />
  <metadata
     id="metadata7331">
    <rdf:RDF>
      <cc:Work
         rdf:about="">
        <dc:format>image/svg+xml</dc:format>
        <dc:type
           rdf:resource="http://purl.org/dc/dcmitype/StillImage" />
        <dc:title></dc:title>
      </cc:Work>
    </rdf:RDF>
  </metadata>
  <g
     inkscape:groupmode="layer"
     id="layer6"
     inkscape:label="points"
     style="display:none">
    <path
       transform="translate(104.70057,-38.619446)"
       style="display:inline;fill:none;fill-rule:evenodd;stroke:#000000;stroke-width:1.46500003;stroke-linecap:butt;stroke-linejoin:miter;stroke-miterlimit:4;stroke-dasharray:none;stroke-opacity:1;marker-start:url(#DotL);marker-mid:url(#DotL);marker-end:url(#DotL)"
       d="m 82.851903,143.53455 -78.4383472,79.145 -72.7843478,73.44006"
       id="path7943"
       inkscape:connector-curvature="0"
       sodipodi:nodetypes="ccc" />
  </g>
  <g
     inkscape:label="Layer 1"
     inkscape:groupmode="layer"
     id="layer1"
     transform="translate(104.70057,-38.619446)"
     style="display:inline">
    <path
       style="fill:#000000;fill-opacity:0.12840468;fill-rule:evenodd;stroke:#000000;stroke-width:1.66499996;stroke-linecap:butt;stroke-linejoin:miter;stroke-miterlimit:4;stroke-dasharray:none;stroke-opacity:1"
       d="m 40.624966,111.78222 c -63.93496,-33.18728 -99.610159,-40.440195 -106.413729,14.74433 -6.803572,55.18451 23.637358,125.50187 43.845236,137.58333 15.4164327,9.21686 88.449133,28.17139 119.440473,-0.75596 C 130.64489,232.4136 149.69738,205.65603 114.83013,171.70026 78.895526,136.70504 40.624966,111.78222 40.624966,111.78222 Z"
       id="path7336"
       inkscape:connector-curvature="0"
       sodipodi:nodetypes="cssssc" />
  </g>
  <g
     inkscape:groupmode="layer"
     id="layer2"
     inkscape:label="Layer 2"
     style="display:inline;opacity:0.95">
    <rect
       id="rect4512"
       width="36.081387"
       height="36.081387"
       x="36.584595"
       y="0.95734072"
       style="fill:none;stroke:#000000;stroke-width:2;stroke-miterlimit:4;stroke-dasharray:none;stroke-opacity:1" />
    <rect
       id="rect4514"
       width="36.081387"
       height="36.081387"
       x="0.50321084"
       y="0.95734072"
       style="fill:none;stroke:#000000;stroke-width:2;stroke-miterlimit:4;stroke-dasharray:none;stroke-opacity:1" />
    <rect
       style="fill:none;stroke:#000000;stroke-width:2;stroke-miterlimit:4;stroke-dasharray:none;stroke-opacity:1"
       y="37.038731"
       x="0.50321084"
       height="36.081387"
       width="36.081387"
       id="rect7917" />
    <rect
       style="fill:none;stroke:#000000;stroke-width:2;stroke-miterlimit:4;stroke-dasharray:none;stroke-opacity:1"
       y="0.95734072"
       x="108.74737"
       height="36.081387"
       width="36.081387"
       id="rect7919" />
    <rect
       style="fill:none;stroke:#000000;stroke-width:2;stroke-miterlimit:4;stroke-dasharray:none;stroke-opacity:1"
       y="0.95734072"
       x="72.665977"
       height="36.081387"
       width="36.081387"
       id="rect7921" />
    <rect
       style="fill:none;stroke:#000000;stroke-width:2;stroke-miterlimit:4;stroke-dasharray:none;stroke-opacity:1"
       y="73.120117"
       x="0.50321084"
       height="36.081387"
       width="36.081387"
       id="rect7929" />
    <rect
       id="rect7933"
       width="36.081387"
       height="36.081387"
       x="0.50321084"
       y="109.20149"
       style="fill:none;stroke:#000000;stroke-width:2;stroke-miterlimit:4;stroke-dasharray:none;stroke-opacity:1" />
    <rect
       style="fill:none;stroke:#000000;stroke-width:2;stroke-miterlimit:4;stroke-dasharray:none;stroke-opacity:1"
       y="145.28288"
       x="0.50321084"
       height="36.081387"
       width="36.081387"
       id="rect4474" />
    <rect
       id="rect4476"
       width="36.081387"
       height="36.081387"
       x="0.50321084"
       y="181.36427"
       style="fill:none;stroke:#000000;stroke-width:2;stroke-miterlimit:4;stroke-dasharray:none;stroke-opacity:1" />
    <rect
       id="rect4486"
       width="36.081387"
       height="36.081387"
       x="0.50321084"
       y="217.44566"
       style="fill:none;stroke:#000000;stroke-width:2;stroke-miterlimit:4;stroke-dasharray:none;stroke-opacity:1" />
    <rect
       style="fill:none;stroke:#000000;stroke-width:2;stroke-miterlimit:4;stroke-dasharray:none;stroke-opacity:1"
       y="253.52704"
       x="36.584595"
       height="36.081387"
       width="36.081387"
       id="rect4488" />
    <rect
       style="fill:none;stroke:#000000;stroke-width:2;stroke-miterlimit:4;stroke-dasharray:none;stroke-opacity:1"
       y="253.52704"
       x="0.50321084"
       height="36.081387"
       width="36.081387"
       id="rect4490" />
    <rect
       id="rect4494"
       width="36.081387"
       height="36.081387"
       x="108.74737"
       y="253.52704"
       style="fill:none;stroke:#000000;stroke-width:2;stroke-miterlimit:4;stroke-dasharray:none;stroke-opacity:1" />
    <rect
       id="rect4496"
       width="36.081387"
       height="36.081387"
       x="72.665977"
       y="253.52704"
       style="fill:none;stroke:#000000;stroke-width:2;stroke-miterlimit:4;stroke-dasharray:none;stroke-opacity:1" />
    <rect
       id="rect4500"
       width="36.081387"
       height="36.081387"
       x="36.584595"
       y="217.44566"
       style="fill:none;stroke:#000000;stroke-width:2;stroke-miterlimit:4;stroke-dasharray:none;stroke-opacity:1" />
    <rect
       style="fill:none;stroke:#000000;stroke-width:2;stroke-miterlimit:4;stroke-dasharray:none;stroke-opacity:1"
       y="0.95734072"
       x="180.91014"
       height="36.081387"
       width="36.081387"
       id="rect4506" />
    <rect
       style="fill:none;stroke:#000000;stroke-width:2;stroke-miterlimit:4;stroke-dasharray:none;stroke-opacity:1"
       y="0.95734072"
       x="144.82875"
       height="36.081387"
       width="36.081387"
       id="rect4508" />
    <rect
       id="rect4513"
       width="36.081387"
       height="36.081387"
       x="253.07291"
       y="0.95734072"
       style="fill:none;stroke:#000000;stroke-width:2;stroke-miterlimit:4;stroke-dasharray:none;stroke-opacity:1" />
    <rect
       id="rect4515"
       width="36.081387"
       height="36.081387"
       x="216.99152"
       y="0.95734072"
       style="fill:none;stroke:#000000;stroke-width:2;stroke-miterlimit:4;stroke-dasharray:none;stroke-opacity:1" />
    <rect
       style="fill:none;stroke:#000000;stroke-width:2;stroke-miterlimit:4;stroke-dasharray:none;stroke-opacity:1"
       y="37.038731"
       x="253.07291"
       height="36.081387"
       width="36.081387"
       id="rect4517" />
    <rect
       style="fill:none;stroke:#000000;stroke-width:2;stroke-miterlimit:4;stroke-dasharray:none;stroke-opacity:1"
       y="37.038731"
       x="216.99152"
       height="36.081387"
       width="36.081387"
       id="rect4519" />
    <rect
       style="fill:none;stroke:#000000;stroke-width:2;stroke-miterlimit:4;stroke-dasharray:none;stroke-opacity:1"
       y="73.120117"
       x="253.07291"
       height="36.081387"
       width="36.081387"
       id="rect4527" />
    <rect
       id="rect4529"
       width="36.081387"
       height="36.081387"
       x="253.07291"
       y="109.20149"
       style="fill:none;stroke:#000000;stroke-width:2;stroke-miterlimit:4;stroke-dasharray:none;stroke-opacity:1" />
    <rect
       id="rect4533"
       width="36.081387"
       height="36.081387"
       x="180.91014"
       y="37.038731"
       style="fill:none;stroke:#000000;stroke-width:2;stroke-miterlimit:4;stroke-dasharray:none;stroke-opacity:1" />
    <rect
       style="fill:none;stroke:#000000;stroke-width:2;stroke-miterlimit:4;stroke-dasharray:none;stroke-opacity:1"
       y="73.120117"
       x="216.99152"
       height="36.081387"
       width="36.081387"
       id="rect4537" />
    <rect
       style="fill:none;stroke:#000000;stroke-width:2;stroke-miterlimit:4;stroke-dasharray:none;stroke-opacity:1"
       y="145.28288"
       x="253.07291"
       height="36.081387"
       width="36.081387"
       id="rect4545" />
    <rect
       id="rect4549"
       width="36.081387"
       height="36.081387"
       x="253.07291"
       y="181.36427"
       style="fill:none;stroke:#000000;stroke-width:2;stroke-miterlimit:4;stroke-dasharray:none;stroke-opacity:1" />
    <rect
       id="rect4555"
       width="36.081387"
       height="36.081387"
       x="180.91014"
       y="253.52704"
       style="fill:none;stroke:#000000;stroke-width:2;stroke-miterlimit:4;stroke-dasharray:none;stroke-opacity:1" />
    <rect
       id="rect4557"
       width="36.081387"
       height="36.081387"
       x="144.82875"
       y="253.52704"
       style="fill:none;stroke:#000000;stroke-width:2;stroke-miterlimit:4;stroke-dasharray:none;stroke-opacity:1" />
    <rect
       id="rect4559"
       width="36.081387"
       height="36.081387"
       x="253.07291"
       y="217.44566"
       style="fill:none;stroke:#000000;stroke-width:2;stroke-miterlimit:4;stroke-dasharray:none;stroke-opacity:1" />
    <rect
       style="fill:none;stroke:#000000;stroke-width:2;stroke-miterlimit:4;stroke-dasharray:none;stroke-opacity:1"
       y="253.52704"
       x="253.07291"
       height="36.081387"
       width="36.081387"
       id="rect4561" />
    <rect
       style="fill:none;stroke:#000000;stroke-width:2;stroke-miterlimit:4;stroke-dasharray:none;stroke-opacity:1"
       y="253.52704"
       x="216.99152"
       height="36.081387"
       width="36.081387"
       id="rect4563" />
    <rect
       id="rect4569"
       width="36.081387"
       height="36.081387"
       x="216.99152"
       y="217.44566"
       style="fill:none;stroke:#000000;stroke-width:2;stroke-miterlimit:4;stroke-dasharray:none;stroke-opacity:1" />
  </g>
  <g
     inkscape:groupmode="layer"
     id="layer7"
     inkscape:label="text">
    <text
       transform="translate(104.70057,-38.619446)"
       xml:space="preserve"
       style="display:inline;opacity:0.95;font-style:normal;font-weight:normal;font-size:10.58333302px;line-height:1.25;font-family:sans-serif;letter-spacing:0px;word-spacing:0px;fill:#000000;fill-opacity:1;stroke:none;stroke-width:0.26458332"
       x="15.187694"
       y="178.04784"
       id="text8372"><tspan
         sodipodi:role="line"
         id="tspan8370"
         x="15.187694"
         y="178.04784"
         style="stroke-width:0.26458332">$\Omega$</tspan></text>
    <text
       transform="translate(104.70057,-38.619446)"
       xml:space="preserve"
       style="font-style:normal;font-weight:normal;font-size:10.58333302px;line-height:1.25;font-family:sans-serif;letter-spacing:0px;word-spacing:0px;display:inline;opacity:0.95;fill:#000000;fill-opacity:1;stroke:none;stroke-width:0.26458332"
       x="4.0467958"
       y="75.658173"
       id="text8376"><tspan
         sodipodi:role="line"
         id="tspan8374"
         x="4.0467958"
         y="75.658173"
         style="stroke-width:0.26458332">$\partial Omega$</tspan></text>
  </g>
  <g
     inkscape:groupmode="layer"
     id="layer4"
     inkscape:label="full"
     style="display:inline">
    <rect
       id="rect7935"
       width="36.081387"
       height="36.081387"
       x="108.74737"
       y="73.120117"
       style="display:inline;opacity:0.95;fill:none;stroke:#000000;stroke-width:2;stroke-miterlimit:4;stroke-dasharray:none;stroke-opacity:1" />
    <rect
       style="display:inline;opacity:0.95;fill:none;stroke:#000000;stroke-width:2;stroke-miterlimit:4;stroke-dasharray:none;stroke-opacity:1"
       y="109.20149"
       x="108.74737"
       height="36.081387"
       width="36.081387"
       id="rect7939" />
    <rect
       style="display:inline;opacity:0.95;fill:none;stroke:#000000;stroke-width:2;stroke-miterlimit:4;stroke-dasharray:none;stroke-opacity:1"
       y="109.20149"
       x="72.665977"
       height="36.081387"
       width="36.081387"
       id="rect7941" />
    <rect
       id="rect7937"
       width="36.081387"
       height="36.081387"
       x="72.665977"
       y="73.120117"
       style="display:inline;opacity:0.95;fill:none;stroke:#000000;stroke-width:2;stroke-miterlimit:4;stroke-dasharray:none;stroke-opacity:1" />
    <rect
       id="rect4480"
       width="36.081387"
       height="36.081387"
       x="72.665977"
       y="145.28288"
       style="display:inline;opacity:0.95;fill:none;stroke:#000000;stroke-width:2;stroke-miterlimit:4;stroke-dasharray:none;stroke-opacity:1" />
    <rect
       style="display:inline;opacity:0.95;fill:none;stroke:#000000;stroke-width:2;stroke-miterlimit:4;stroke-dasharray:none;stroke-opacity:1"
       y="181.36427"
       x="108.74737"
       height="36.081387"
       width="36.081387"
       id="rect4482" />
    <rect
       id="rect4478"
       width="36.081387"
       height="36.081387"
       x="108.74737"
       y="145.28288"
       style="display:inline;opacity:0.95;fill:none;stroke:#000000;stroke-width:2;stroke-miterlimit:4;stroke-dasharray:none;stroke-opacity:1" />
    <rect
       style="display:inline;opacity:0.95;fill:none;stroke:#000000;stroke-width:2;stroke-miterlimit:4;stroke-dasharray:none;stroke-opacity:1"
       y="109.20149"
       x="144.82875"
       height="36.081387"
       width="36.081387"
       id="rect4525" />
    <rect
       id="rect4539"
       width="36.081387"
       height="36.081387"
       x="180.91014"
       y="145.28288"
       style="display:inline;opacity:0.95;fill:none;stroke:#000000;stroke-width:2;stroke-miterlimit:4;stroke-dasharray:none;stroke-opacity:1" />
    <rect
       id="rect4541"
       width="36.081387"
       height="36.081387"
       x="144.82875"
       y="145.28288"
       style="display:inline;opacity:0.95;fill:none;stroke:#000000;stroke-width:2;stroke-miterlimit:4;stroke-dasharray:none;stroke-opacity:1" />
    <rect
       style="display:inline;opacity:0.95;fill:none;stroke:#000000;stroke-width:2;stroke-miterlimit:4;stroke-dasharray:none;stroke-opacity:1"
       y="181.36427"
       x="144.82875"
       height="36.081387"
       width="36.081387"
       id="rect4543" />
  </g>
  <g
     inkscape:groupmode="layer"
     id="layer5"
     inkscape:label="partial"
     style="display:inline">
    <rect
       style="display:inline;opacity:0.95;fill:none;stroke:#000000;stroke-width:2;stroke-miterlimit:4;stroke-dasharray:none;stroke-opacity:1"
       y="73.120117"
       x="36.584595"
       height="36.081387"
       width="36.081387"
       id="rect7927" />
    <rect
       id="rect7931"
       width="36.081387"
       height="36.081387"
       x="36.584595"
       y="109.20149"
       style="display:inline;opacity:0.95;fill:none;stroke:#000000;stroke-width:2;stroke-miterlimit:4;stroke-dasharray:none;stroke-opacity:1" />
    <rect
       style="display:inline;opacity:0.95;fill:none;stroke:#000000;stroke-width:2;stroke-miterlimit:4;stroke-dasharray:none;stroke-opacity:1"
       y="181.36427"
       x="72.665977"
       height="36.081387"
       width="36.081387"
       id="rect4484" />
    <rect
       id="rect7923"
       width="36.081387"
       height="36.081387"
       x="108.74737"
       y="37.038731"
       style="display:inline;opacity:0.95;fill:none;stroke:#000000;stroke-width:2;stroke-miterlimit:4;stroke-dasharray:none;stroke-opacity:1" />
    <rect
       id="rect7925"
       width="36.081387"
       height="36.081387"
       x="72.665977"
       y="37.038731"
       style="display:inline;opacity:0.95;fill:none;stroke:#000000;stroke-width:2;stroke-miterlimit:4;stroke-dasharray:none;stroke-opacity:1" />
    <rect
       style="display:inline;opacity:0.95;fill:none;stroke:#000000;stroke-width:2;stroke-miterlimit:4;stroke-dasharray:none;stroke-opacity:1"
       y="37.038731"
       x="36.584595"
       height="36.081387"
       width="36.081387"
       id="rect7915" />
    <rect
       style="display:inline;opacity:0.95;fill:none;stroke:#000000;stroke-width:2;stroke-miterlimit:4;stroke-dasharray:none;stroke-opacity:1"
       y="145.28288"
       x="36.584595"
       height="36.081387"
       width="36.081387"
       id="rect4472" />
    <rect
       style="display:inline;opacity:0.95;fill:none;stroke:#000000;stroke-width:2;stroke-miterlimit:4;stroke-dasharray:none;stroke-opacity:1"
       y="217.44566"
       x="108.74737"
       height="36.081387"
       width="36.081387"
       id="rect4492" />
    <rect
       id="rect4498"
       width="36.081387"
       height="36.081387"
       x="36.584595"
       y="181.36427"
       style="display:inline;opacity:0.95;fill:none;stroke:#000000;stroke-width:2;stroke-miterlimit:4;stroke-dasharray:none;stroke-opacity:1" />
    <rect
       style="display:inline;opacity:0.95;fill:none;stroke:#000000;stroke-width:2;stroke-miterlimit:4;stroke-dasharray:none;stroke-opacity:1"
       y="217.44566"
       x="72.665977"
       height="36.081387"
       width="36.081387"
       id="rect4502" />
    <rect
       id="rect4521"
       width="36.081387"
       height="36.081387"
       x="144.82875"
       y="73.120117"
       style="display:inline;opacity:0.95;fill:none;stroke:#000000;stroke-width:2;stroke-miterlimit:4;stroke-dasharray:none;stroke-opacity:1" />
    <rect
       style="display:inline;opacity:0.95;fill:none;stroke:#000000;stroke-width:2;stroke-miterlimit:4;stroke-dasharray:none;stroke-opacity:1"
       y="109.20149"
       x="180.91014"
       height="36.081387"
       width="36.081387"
       id="rect4523" />
    <rect
       style="display:inline;opacity:0.95;fill:none;stroke:#000000;stroke-width:2;stroke-miterlimit:4;stroke-dasharray:none;stroke-opacity:1"
       y="145.28288"
       x="216.99152"
       height="36.081387"
       width="36.081387"
       id="rect4547" />
    <rect
       id="rect4551"
       width="36.081387"
       height="36.081387"
       x="216.99152"
       y="181.36427"
       style="display:inline;opacity:0.95;fill:none;stroke:#000000;stroke-width:2;stroke-miterlimit:4;stroke-dasharray:none;stroke-opacity:1" />
    <rect
       style="display:inline;opacity:0.95;fill:none;stroke:#000000;stroke-width:2;stroke-miterlimit:4;stroke-dasharray:none;stroke-opacity:1"
       y="217.44566"
       x="144.82875"
       height="36.081387"
       width="36.081387"
       id="rect4553" />
    <rect
       style="display:inline;opacity:0.95;fill:none;stroke:#000000;stroke-width:2;stroke-miterlimit:4;stroke-dasharray:none;stroke-opacity:1"
       y="181.36427"
       x="180.91014"
       height="36.081387"
       width="36.081387"
       id="rect4565" />
    <rect
       style="display:inline;opacity:0.95;fill:none;stroke:#000000;stroke-width:2;stroke-miterlimit:4;stroke-dasharray:none;stroke-opacity:1"
       y="217.44566"
       x="180.91014"
       height="36.081387"
       width="36.081387"
       id="rect4567" />
    <rect
       id="rect4510"
       width="36.081387"
       height="36.081387"
       x="144.82875"
       y="37.038731"
       style="display:inline;opacity:0.95;fill:none;stroke:#000000;stroke-width:2;stroke-miterlimit:4;stroke-dasharray:none;stroke-opacity:1" />
    <rect
       id="rect4531"
       width="36.081387"
       height="36.081387"
       x="216.99152"
       y="109.20149"
       style="display:inline;opacity:0.95;fill:none;stroke:#000000;stroke-width:2;stroke-miterlimit:4;stroke-dasharray:none;stroke-opacity:1" />
    <rect
       id="rect4535"
       width="36.081387"
       height="36.081387"
       x="180.91014"
       y="73.120117"
       style="display:inline;opacity:0.95;fill:none;stroke:#000000;stroke-width:2;stroke-miterlimit:4;stroke-dasharray:none;stroke-opacity:1" />
  </g>
</svg>
